<?xml version="1.0" standalone="no"?>
<!DOCTYPE svg PUBLIC "-//W3C//DTD SVG 20010904//EN"
 "http://www.w3.org/TR/2001/REC-SVG-20010904/DTD/svg10.dtd">
<svg version="1.0" xmlns="http://www.w3.org/2000/svg"
 width="747.000000pt" height="328.000000pt" viewBox="0 0 747.000000 328.000000"
 preserveAspectRatio="xMidYMid meet">

<g transform="translate(0.000000,328.000000) scale(0.100000,-0.100000)"
fill="#000000" stroke="none">
<path d="M509 3266 c-84 -32 -117 -56 -150 -108 -32 -49 -34 -59 -37 -148 l-4
-95 56 -111 c62 -123 74 -134 159 -134 67 1 114 23 207 100 97 80 142 103 183
94 17 -3 37 -13 45 -20 37 -38 82 -3 82 64 0 98 -53 211 -131 277 -96 82 -117
89 -254 92 -83 2 -131 -2 -156 -11z m241 -96 c65 -18 180 -140 180 -190 0 -5
-16 -10 -35 -10 -50 0 -136 -46 -233 -125 -67 -55 -89 -68 -120 -69 -37 -1
-37 0 -79 83 -35 68 -43 93 -43 139 0 119 76 180 225 181 39 1 86 -3 105 -9z"/>
<path d="M2867 3075 c-54 -19 -80 -46 -117 -122 -32 -65 -33 -67 -24 -150 l10
-84 -34 41 c-19 22 -47 47 -63 55 -70 37 -170 2 -260 -89 l-56 -56 -67 79
c-58 68 -78 84 -134 108 -57 24 -80 28 -157 28 -102 -1 -150 -16 -278 -85 -78
-42 -165 -116 -185 -155 -5 -11 -13 -38 -17 -60 -6 -35 -8 -37 -17 -20 -11 20
-88 114 -119 145 -8 9 -46 34 -85 56 -66 37 -73 39 -154 39 -54 -1 -119 -9
-180 -24 -103 -25 -257 -92 -297 -129 -14 -12 -46 -37 -72 -55 -88 -60 -147
-148 -158 -236 -5 -48 -6 -48 -59 -65 -29 -9 -56 -21 -60 -27 -3 -6 -19 0 -37
14 -120 91 -209 71 -236 -51 -20 -95 -14 -223 14 -297 37 -98 101 -203 164
-267 31 -31 62 -64 70 -73 9 -11 24 -15 42 -13 16 3 29 3 29 1 0 -2 -9 -21
-20 -43 -28 -55 -28 -193 0 -284 11 -36 25 -68 31 -71 5 -4 27 -42 49 -86 l40
-79 -84 0 c-88 0 -116 -12 -116 -48 1 -41 16 -47 132 -54 62 -3 153 -11 202
-18 50 -7 122 -10 161 -8 73 3 77 5 215 93 94 60 129 81 183 107 l57 27 0 -68
0 -68 -40 -18 c-42 -19 -57 -47 -45 -84 11 -36 49 -36 110 -2 30 17 65 31 77
31 25 0 111 38 155 68 15 11 53 36 83 56 30 20 87 61 125 92 39 30 97 70 130
89 64 36 131 96 139 123 3 9 12 53 21 97 9 44 18 81 21 84 2 2 4 -25 4 -61 0
-70 17 -106 82 -175 48 -50 76 -58 166 -43 105 17 128 28 206 101 64 59 116
138 116 175 0 10 11 1 28 -23 52 -76 59 -83 103 -102 90 -41 241 -17 335 55
45 34 92 109 100 160 7 47 14 53 34 29 6 -8 37 -24 68 -36 49 -18 69 -20 149
-15 l93 6 -20 -32 c-27 -44 -26 -111 2 -155 46 -76 241 -134 402 -119 105 9
205 43 235 80 17 20 31 21 31 2 0 -29 51 -73 114 -100 36 -16 66 -33 66 -38 0
-5 -8 -7 -17 -4 -55 17 -116 26 -174 26 -88 0 -148 -27 -240 -110 -92 -83 -93
-84 -108 -56 -19 35 -129 84 -238 106 -281 58 -386 53 -428 -21 l-20 -36 -28
21 c-30 22 -93 27 -149 11 -23 -6 -28 -4 -28 10 0 31 -40 83 -72 94 -54 19
-148 13 -203 -13 -27 -13 -58 -32 -68 -44 l-18 -20 -24 24 c-20 19 -34 24 -79
24 -68 0 -102 -12 -142 -51 -21 -20 -34 -27 -39 -20 -22 37 -185 91 -272 91
-108 0 -232 -139 -247 -275 -7 -66 -23 -84 -115 -135 -118 -65 -121 -253 -6
-426 30 -44 65 -86 80 -92 63 -29 286 -7 379 36 59 28 66 34 77 74 15 51 17
137 6 229 l-8 67 32 -7 c40 -8 44 -22 54 -158 9 -125 36 -242 70 -299 29 -49
84 -81 158 -91 82 -12 225 37 262 90 13 18 18 20 33 9 57 -41 108 -57 187 -56
91 0 127 14 185 73 l36 36 -4 -62 c-8 -114 32 -173 116 -173 31 0 60 9 96 29
63 37 83 59 128 139 l35 63 23 -63 c26 -72 87 -137 159 -170 37 -17 56 -19
115 -14 289 27 509 133 561 270 26 66 18 257 -12 308 l-21 36 46 32 c26 17 61
41 79 53 43 30 73 101 73 175 0 49 -5 66 -28 98 -31 43 -82 96 -113 118 -18
12 -14 15 53 37 61 20 83 33 130 80 63 63 84 114 95 227 3 34 10 65 14 68 5 3
9 1 9 -4 0 -5 28 -22 63 -38 54 -26 72 -29 147 -27 103 2 180 21 264 66 l64
33 4 -100 c5 -107 28 -175 66 -195 31 -17 166 -25 204 -12 46 15 106 75 142
141 26 48 31 69 37 170 4 63 13 151 19 195 13 86 6 358 -10 414 l-9 31 38 -19
c20 -11 54 -23 75 -26 37 -7 37 -8 31 -46 -4 -22 -23 -83 -42 -137 -19 -53
-38 -115 -43 -137 -5 -22 -14 -53 -21 -70 -6 -16 -14 -87 -17 -156 -4 -111 -2
-131 16 -172 15 -33 28 -48 46 -53 36 -9 89 3 119 26 14 11 28 20 31 20 3 0 6
-22 6 -49 0 -64 30 -133 64 -149 76 -34 186 -4 348 95 92 56 122 81 182 151
84 98 156 216 156 254 0 15 9 67 20 115 43 184 34 320 -26 380 -25 25 -29 25
-125 21 -91 -5 -106 -8 -177 -44 -42 -21 -96 -58 -119 -81 l-43 -43 0 105 c0
92 2 106 18 112 43 14 209 97 226 111 28 25 84 113 91 145 13 49 -3 112 -38
150 -43 47 -76 62 -179 81 -47 9 -101 22 -120 30 -62 26 -289 61 -388 60 -110
0 -150 -15 -181 -69 -22 -38 -39 -37 -64 1 -9 14 -50 47 -92 75 -60 39 -84 49
-117 49 -91 -1 -171 -54 -217 -142 l-29 -57 -58 35 c-50 29 -71 35 -141 41
-76 6 -87 4 -140 -21 -42 -20 -71 -45 -107 -89 l-49 -61 -8 63 c-8 63 -29 119
-51 133 -6 4 -43 8 -81 8 -60 0 -81 -5 -140 -34 -81 -39 -158 -103 -184 -153
l-18 -35 -31 55 c-47 82 -70 97 -158 97 -94 0 -117 -10 -184 -75 l-55 -54 -85
40 -85 40 -117 -3 c-65 -2 -118 -1 -118 2 1 3 7 16 15 30 20 35 19 134 0 154
-34 33 -179 47 -236 22 -13 -6 -21 2 -34 32 -18 40 -59 72 -92 72 -10 -1 -35
-7 -56 -15z m61 -125 c13 -17 26 -54 31 -91 4 -33 14 -65 22 -70 37 -23 89 2
89 44 0 30 39 67 71 67 35 0 59 -9 59 -23 0 -43 -182 -256 -281 -329 l-36 -27
-10 22 c-12 27 -30 125 -42 237 -8 76 -7 88 11 125 21 42 47 75 58 75 3 0 16
-13 28 -30z m2450 -91 c26 -18 63 -48 83 -68 20 -20 54 -51 77 -69 39 -31 42
-37 42 -82 0 -67 35 -99 79 -71 9 6 28 -8 65 -48 73 -80 92 -110 104 -163 8
-43 8 -48 -8 -48 -34 0 -86 23 -120 55 -113 103 -188 93 -165 -23 39 -202 51
-368 35 -490 -7 -53 -16 -147 -19 -208 -6 -98 -10 -116 -36 -156 -15 -24 -43
-55 -60 -67 -28 -19 -41 -21 -84 -15 -44 6 -52 10 -59 33 -12 42 -7 439 7 516
10 60 36 174 73 327 5 22 18 42 31 49 30 16 37 28 37 70 0 20 5 50 11 68 14
40 5 78 -21 86 -31 10 -57 -3 -70 -35 l-12 -30 -40 45 c-22 25 -51 48 -64 51
-30 8 -71 74 -80 130 -12 75 59 163 139 173 5 1 29 -13 55 -30z m597 -49 c66
-11 145 -29 175 -39 30 -10 75 -22 100 -26 95 -14 118 -24 140 -60 l22 -35
-23 -37 c-36 -61 -47 -70 -133 -111 -112 -55 -123 -57 -131 -32 -10 30 -50 53
-80 46 -33 -8 -43 -49 -22 -90 40 -78 47 -109 47 -215 -1 -175 -27 -307 -75
-372 -14 -19 -34 -54 -46 -79 -11 -25 -25 -55 -31 -67 -19 -39 -127 -145 -139
-137 -15 9 -6 195 11 239 6 17 15 48 20 70 5 22 25 85 44 140 20 55 41 129 46
164 6 35 17 70 25 78 18 18 19 68 1 149 -14 68 -52 122 -170 248 -59 62 -65
72 -68 118 -1 27 2 53 7 58 29 24 106 21 280 -10z m-1502 -50 c14 -51 2 -257
-18 -326 -19 -63 -56 -161 -111 -290 -47 -112 -45 -141 11 -204 25 -28 58 -77
75 -109 l29 -59 -24 -61 c-29 -71 -31 -94 -9 -115 21 -22 50 -20 74 4 l20 20
0 -20 c0 -11 5 -20 11 -20 13 0 7 -63 -11 -131 -10 -34 -53 -89 -71 -89 -4 0
-10 11 -13 25 -11 42 -48 43 -109 1 -53 -36 -53 -37 -90 -21 -43 18 -51 33
-67 130 -8 51 -9 86 -1 130 22 125 43 316 37 339 -10 39 -76 47 -90 11 -3 -8
-15 -83 -26 -167 -11 -84 -27 -179 -35 -210 -8 -32 -15 -67 -15 -78 0 -11 -16
-38 -36 -59 -77 -86 -287 -103 -439 -36 -88 39 -83 66 29 173 31 29 56 58 56
64 0 5 29 38 64 73 47 47 70 79 86 122 32 84 34 110 16 202 -17 92 -33 123
-76 149 -23 15 -26 21 -18 36 6 10 11 93 12 185 1 103 6 174 13 186 6 12 34
42 62 68 44 42 55 47 95 47 42 0 48 -3 71 -39 36 -54 61 -228 46 -316 -20
-115 -9 -165 37 -165 35 0 45 20 67 131 27 141 53 242 73 292 30 73 170 171
236 165 25 -3 31 -9 39 -38z m-2396 3 c52 -22 162 -145 198 -221 14 -29 23
-56 21 -60 -2 -4 -12 -52 -21 -107 -28 -169 -52 -246 -91 -290 -73 -84 -75
-85 -227 -140 -26 -9 -53 -26 -59 -38 -7 -12 -16 -74 -20 -137 -9 -128 -17
-187 -42 -305 -20 -93 -40 -119 -131 -170 -33 -19 -91 -59 -130 -89 -103 -82
-236 -170 -272 -181 -21 -6 -23 -3 -23 37 1 89 15 126 67 181 47 49 68 93 87
180 4 15 11 27 17 27 5 0 40 31 77 69 46 48 80 94 109 152 65 131 68 143 68
274 -1 131 -24 238 -88 395 -25 62 -31 89 -31 161 l-1 86 49 48 c27 26 65 54
84 62 19 8 46 22 60 31 86 57 214 73 299 35z m2901 -35 c26 -18 51 -39 56 -47
5 -9 27 -34 49 -56 42 -43 77 -99 77 -126 0 -9 7 -34 16 -55 18 -44 15 -171
-7 -234 -24 -72 -87 -115 -174 -120 -58 -4 -63 -1 -86 54 -18 44 -29 58 -59
71 -46 21 -78 13 -86 -21 -9 -35 60 -166 109 -205 68 -55 120 -61 164 -20 18
17 27 18 56 10 39 -10 83 -56 93 -95 10 -40 -4 -115 -29 -151 -41 -60 -169
-112 -286 -115 -96 -2 -166 46 -229 160 l-37 67 1 150 c1 372 4 426 32 568 8
45 103 168 147 191 47 25 134 13 193 -26z m-2335 -65 c30 -38 75 -101 101
-142 l47 -74 -20 -48 c-25 -57 -27 -112 -5 -133 33 -34 84 -8 84 42 0 22 7 16
36 -38 65 -116 85 -161 94 -208 5 -26 13 -60 19 -75 14 -35 14 -229 1 -321
-14 -91 -47 -134 -135 -171 -51 -22 -74 -27 -112 -22 -58 6 -91 40 -154 156
-45 83 -53 91 -86 91 -32 0 -48 -21 -62 -86 -29 -127 -33 -137 -79 -186 -67
-71 -97 -90 -169 -104 l-63 -12 -41 47 -40 46 5 73 c3 57 13 91 41 149 19 42
41 81 49 87 63 53 155 235 154 306 0 14 10 57 21 95 33 109 65 292 65 377 l1
77 50 52 c46 48 106 88 132 89 7 0 36 -30 66 -67z m-1429 11 c73 -41 156 -141
184 -221 32 -96 40 -236 15 -283 -10 -20 -27 -36 -39 -38 -40 -6 -67 26 -165
196 -15 25 -34 49 -44 54 -26 15 -64 1 -71 -26 -6 -25 30 -106 72 -161 17 -23
20 -34 12 -48 -19 -35 19 -192 68 -278 72 -127 93 -184 100 -267 8 -98 -23
-233 -61 -272 -21 -20 -25 -22 -25 -7 0 23 -35 57 -59 57 -37 0 -52 -27 -45
-81 8 -63 -5 -80 -101 -126 -38 -18 -97 -51 -130 -72 -131 -87 -181 -111 -228
-111 -36 0 -47 4 -52 19 -7 23 -37 35 -64 26 -27 -8 -64 41 -130 171 -49 95
-55 114 -59 183 -5 81 3 108 48 159 19 23 21 23 95 11 214 -34 441 47 472 169
12 51 -7 75 -97 119 -47 24 -107 50 -135 59 -27 9 -82 32 -122 51 -65 31 -74
39 -89 79 -9 24 -19 44 -23 44 -3 0 -4 22 -3 50 3 32 -4 70 -18 112 -40 117
-5 198 123 283 32 21 57 41 57 46 0 16 170 88 255 108 160 36 186 36 259 -5z
m2329 -25 c81 -40 87 -55 87 -227 0 -128 -1 -132 -24 -147 -21 -14 -37 -15
-124 -5 -110 12 -174 3 -198 -27 -38 -46 -57 -109 -62 -199 -3 -75 -1 -93 13
-107 9 -9 24 -17 33 -17 37 0 46 18 53 102 7 89 28 144 56 150 10 2 47 -1 83
-5 36 -5 85 -11 110 -12 50 -4 114 -28 126 -47 5 -7 13 -41 20 -76 15 -80 -2
-141 -58 -202 l-38 -43 0 31 c0 57 -58 92 -94 57 -11 -12 -14 -30 -9 -83 5
-66 5 -68 -21 -80 -14 -6 -67 -17 -117 -23 -115 -14 -156 -1 -223 72 l-46 50
0 89 c0 49 -5 101 -11 117 -6 15 -14 48 -19 73 -9 49 -49 137 -110 245 -43 77
-44 72 19 128 14 12 61 57 104 100 47 45 89 77 101 77 12 1 44 9 71 20 33 12
78 19 132 19 73 1 90 -3 146 -30z m1759 -296 c-10 -28 -10 -28 -11 12 -1 28 2
36 10 28 8 -8 8 -19 1 -40z m-3726 -218 c22 -78 28 -121 28 -195 0 -92 -2 -98
-46 -190 -25 -52 -58 -108 -73 -125 l-29 -30 -14 70 c-19 95 -53 179 -100 251
-21 32 -42 73 -45 90 l-6 31 67 -4 c59 -5 71 -2 96 18 38 30 76 113 76 169 1
59 11 41 46 -85z m2927 -42 l-6 -162 -27 37 c-15 20 -34 43 -43 50 -15 13 -14
18 4 65 11 29 25 57 30 63 5 6 16 35 25 64 8 28 17 50 19 48 2 -1 1 -76 -2
-165z m-4319 95 c65 -84 75 -85 142 -27 55 48 93 50 108 7 8 -21 3 -41 -23
-101 -18 -41 -36 -89 -41 -108 -5 -19 -22 -70 -39 -114 -17 -44 -31 -88 -31
-97 0 -77 -128 87 -180 231 -19 52 -22 74 -17 144 6 102 13 120 37 107 10 -5
29 -24 44 -42z m6396 -27 c13 -54 8 -100 -21 -229 -10 -45 -19 -95 -19 -110
-1 -35 -48 -109 -132 -209 -53 -64 -87 -92 -165 -140 -94 -57 -176 -93 -214
-93 -41 0 -50 76 -21 175 22 75 82 193 122 238 16 19 34 45 40 58 6 13 28 50
48 83 39 61 64 76 179 106 44 11 60 34 48 70 -8 26 -47 35 -101 23 -24 -6 -44
-9 -44 -8 0 2 25 17 55 34 61 35 109 48 172 50 l41 1 12 -49z m-1347 -104 c-5
-36 -6 -37 -25 -21 -18 17 -18 18 4 41 12 12 23 22 24 20 2 -2 1 -20 -3 -40z
m-4743 -116 c0 -22 152 -105 230 -127 45 -12 170 -67 170 -74 0 -16 -39 -40
-100 -61 -78 -28 -164 -30 -302 -9 l-97 14 6 29 c3 17 19 64 36 106 16 42 31
88 34 104 5 25 23 39 23 18z m1624 -88 c-15 -21 -33 -42 -40 -48 -20 -18 -85
-146 -100 -199 -12 -42 -13 -44 -8 -11 4 22 9 87 13 145 l6 104 50 19 c69 26
99 35 104 31 2 -2 -9 -20 -25 -41z m623 -703 c7 -14 13 -61 13 -105 0 -62 -5
-89 -21 -119 -25 -47 -19 -83 16 -92 13 -3 29 -3 34 1 6 3 11 -1 11 -11 0 -25
38 -82 60 -89 28 -9 58 3 65 26 4 12 -8 54 -31 110 -35 83 -36 92 -25 130 13
42 61 82 87 72 24 -9 81 -98 102 -159 22 -65 52 -233 52 -293 0 -21 -11 -72
-24 -114 -20 -62 -33 -84 -75 -125 -36 -36 -61 -51 -89 -55 -45 -8 -107 8
-142 35 -23 18 -24 25 -22 91 4 98 -7 141 -64 237 -52 87 -80 110 -136 110
l-33 0 0 135 c0 114 2 136 16 140 8 3 22 20 30 38 29 65 149 91 176 37z m-752
-1 c106 -19 138 -45 195 -156 19 -36 20 -48 11 -74 -6 -18 -11 -45 -11 -60 0
-65 -93 -4 -105 69 -11 65 -53 93 -88 58 -23 -23 -30 -116 -10 -145 11 -18 15
-44 14 -90 -1 -37 3 -98 8 -138 15 -104 1 -142 -60 -164 -25 -10 -93 -21 -150
-24 l-104 -7 -42 64 c-53 80 -80 176 -64 227 8 26 22 42 50 59 49 27 61 28 61
2 0 -12 14 -34 31 -51 26 -25 37 -30 62 -25 16 3 35 6 43 6 19 0 44 29 44 50
0 26 -27 50 -55 50 -35 0 -49 45 -40 132 8 91 41 156 97 197 23 17 45 31 48
31 4 0 33 -5 65 -11z m2234 -25 c43 -12 68 -29 119 -80 63 -63 64 -66 59 -107
-6 -43 -23 -62 -109 -123 l-38 -27 -65 67 c-67 67 -97 83 -134 71 -25 -8 -37
-46 -23 -72 6 -10 31 -34 56 -53 25 -19 45 -38 46 -42 0 -5 -15 -8 -34 -8 -38
0 -66 -21 -66 -50 0 -37 27 -50 105 -50 67 0 74 -2 90 -26 19 -29 31 -151 21
-207 -7 -40 -58 -95 -121 -132 -75 -45 -207 -81 -360 -99 -49 -5 -60 -1 -115
46 -37 32 -46 48 -67 120 -13 48 -32 90 -43 100 l-20 16 20 54 c29 78 82 104
159 77 34 -12 51 -35 51 -68 0 -12 9 -29 20 -38 11 -10 20 -30 20 -45 0 -31
23 -58 50 -58 19 0 50 25 50 41 0 5 11 9 24 9 42 0 70 44 48 76 -4 6 -17 16
-29 23 -19 10 -23 20 -23 62 0 56 -10 79 -51 124 -16 16 -29 33 -29 37 0 4
-18 28 -40 53 -49 57 -51 86 -7 129 90 87 192 173 225 188 44 21 127 18 211
-8z m-1820 -29 c17 -47 22 -347 7 -383 -8 -18 -4 -34 20 -78 16 -30 37 -57 47
-60 47 -15 80 32 60 87 -9 22 -8 29 5 34 17 6 17 6 68 -79 26 -44 36 -74 41
-120 5 -56 3 -64 -23 -100 -54 -73 -78 -91 -142 -104 -52 -11 -66 -10 -99 3
-21 8 -45 25 -52 37 -22 36 -40 124 -55 272 -13 123 -12 147 1 205 26 111 27
164 5 215 l-20 45 39 36 c52 47 79 44 98 -10z m926 21 c191 -33 280 -59 316
-92 26 -24 24 -62 -3 -74 -13 -6 -52 -16 -87 -24 -34 -8 -66 -17 -69 -20 -11
-11 -21 -103 -21 -199 -1 -89 -5 -110 -44 -225 -52 -151 -89 -217 -143 -254
-49 -34 -62 -35 -70 -1 -7 28 28 197 77 366 17 62 30 137 35 203 6 100 8 104
30 104 27 0 54 25 54 50 0 34 -29 51 -84 49 -63 -3 -102 13 -138 54 -32 38
-34 52 -10 66 23 14 62 13 157 -3z m-112 -217 c11 -8 -3 -190 -13 -184 -4 3
-13 44 -20 92 -7 49 -17 96 -22 105 -8 16 -6 17 19 6 15 -6 32 -15 36 -19z
m448 -91 c4 -15 24 -44 45 -63 20 -19 35 -37 32 -40 -2 -3 -31 0 -63 6 -32 6
-71 8 -87 5 -26 -5 -28 -3 -28 29 0 50 16 83 42 88 40 8 51 3 59 -25z"/>
<path d="M1914 2462 c-15 -10 -34 -47 -34 -66 0 -22 36 -56 59 -56 30 0 51 28
51 65 0 50 -41 81 -76 57z"/>
<path d="M4866 2444 c-20 -20 -20 -43 0 -93 17 -42 40 -57 74 -46 26 8 35 45
20 90 -20 62 -60 83 -94 49z"/>
<path d="M2556 2144 c-35 -34 -11 -114 34 -114 29 0 50 28 50 65 0 37 -21 65
-50 65 -10 0 -26 -7 -34 -16z"/>
<path d="M7093 2685 c-17 -7 -39 -25 -49 -40 -39 -59 -89 -394 -70 -468 9 -37
66 -51 149 -37 209 36 275 59 317 107 26 29 30 42 30 91 0 104 -63 159 -154
134 -34 -10 -37 -9 -31 6 14 34 17 110 5 146 -21 64 -119 95 -197 61z m97
-100 c17 -21 2 -72 -56 -182 -49 -93 -51 -104 -28 -127 29 -29 67 -19 145 39
82 61 119 70 119 30 0 -30 -45 -62 -100 -71 -19 -3 -48 -9 -65 -14 -16 -5 -54
-11 -83 -15 l-54 -6 7 68 c11 112 46 267 63 281 21 16 37 15 52 -3z"/>
<path d="M6665 2678 c-90 -51 -109 -187 -40 -286 61 -90 127 -112 211 -71 35
16 45 28 58 66 25 74 21 153 -10 199 -29 43 -64 78 -94 94 -25 13 -100 12
-125 -2z m108 -125 c25 -24 37 -45 37 -64 0 -69 -41 -108 -72 -69 -10 12 -18
33 -18 45 0 13 -7 30 -15 39 -20 19 -19 45 2 68 22 24 24 24 66 -19z"/>
<path d="M5900 1150 c-73 -11 -157 -49 -182 -80 -23 -29 -24 -29 -63 -15 -22
8 -78 14 -125 14 -108 1 -151 -20 -197 -99 -28 -46 -33 -64 -33 -117 0 -78 20
-128 60 -151 16 -9 30 -19 30 -22 0 -3 -30 -23 -66 -45 -36 -22 -84 -55 -106
-72 -22 -18 -42 -33 -44 -33 -2 0 7 22 21 50 14 27 25 60 25 74 0 53 -55 71
-126 41 l-35 -14 19 24 c43 55 35 156 -16 195 -27 22 -73 24 -129 5 -20 -6
-23 -4 -23 21 0 125 -88 186 -191 133 -33 -16 -46 -32 -69 -82 -16 -34 -34
-92 -40 -128 -5 -37 -16 -82 -24 -100 -20 -48 -40 -180 -33 -211 4 -14 14 -29
23 -32 17 -7 204 29 239 46 29 14 -40 -42 -95 -77 -26 -16 -67 -44 -91 -62
-24 -18 -62 -45 -84 -62 -22 -16 -75 -48 -118 -72 -116 -65 -140 -95 -102
-132 16 -17 208 -31 336 -25 l77 3 -19 -24 c-23 -29 -24 -64 -3 -85 34 -35 65
-18 129 73 54 76 55 76 160 117 90 35 245 108 361 171 l91 50 21 -24 c15 -17
31 -23 63 -23 36 0 48 6 87 45 49 49 52 51 52 32 0 -25 51 -82 93 -104 55 -29
130 -30 174 -3 36 22 83 105 83 147 l0 28 80 2 c69 1 88 6 133 31 33 19 60 43
74 68 39 68 26 183 -27 236 -26 25 -35 28 -94 28 l-66 0 20 40 c11 21 20 53
20 70 0 45 -35 106 -77 135 -40 26 -94 31 -193 15z m130 -100 c40 -22 44 -48
13 -93 -15 -23 -40 -54 -55 -69 -29 -27 -35 -52 -18 -78 7 -12 38 -16 132 -20
l122 -5 9 -34 c17 -68 -17 -109 -102 -122 -61 -9 -96 8 -157 75 -53 58 -80 69
-108 40 -22 -21 -20 -46 5 -78 25 -32 59 -117 59 -149 0 -33 -37 -87 -59 -87
-52 0 -111 67 -111 126 0 45 -31 123 -50 129 -40 13 -59 -5 -100 -89 -48 -101
-65 -119 -73 -76 -10 49 -45 50 -127 1 -38 -23 -88 -50 -112 -61 -24 -11 -71
-35 -105 -54 -80 -44 -82 -39 -3 9 33 20 77 50 99 68 22 18 65 48 97 67 53 32
103 71 161 127 24 23 29 48 14 72 -5 8 -37 18 -71 23 -71 9 -89 25 -90 77 0
37 32 96 60 111 25 14 113 13 144 -1 13 -7 30 -25 37 -41 26 -62 89 -62 110
-1 30 92 94 129 242 142 10 0 27 -4 37 -9z m-1224 -116 c4 -20 4 -60 0 -89
-10 -91 28 -107 130 -55 58 29 59 29 62 8 2 -11 -5 -29 -15 -38 -32 -32 -216
-119 -270 -128 l-53 -9 6 26 c3 14 14 52 25 84 10 31 19 67 19 80 0 13 7 46
15 75 26 85 69 110 81 46z m210 -446 c-87 -116 -105 -140 -136 -185 -24 -34
-39 -44 -87 -58 -32 -10 -103 -20 -158 -22 l-100 -5 45 30 c25 17 70 49 100
71 30 22 68 49 84 58 16 10 55 37 86 61 58 42 212 132 218 127 2 -2 -21 -36
-52 -77z"/>
<path d="M5736 834 c-32 -32 -8 -84 39 -84 28 0 55 24 55 50 0 26 -27 50 -55
50 -13 0 -31 -7 -39 -16z"/>
<path d="M823 889 c-23 -11 -44 -26 -47 -34 -3 -8 -1 -60 3 -117 9 -114 40
-237 78 -312 23 -45 24 -50 8 -59 -30 -17 -55 -46 -55 -66 0 -24 25 -51 47
-51 15 0 112 52 143 76 57 46 153 114 195 138 59 34 79 56 106 116 17 36 19
56 14 104 -8 75 -26 110 -65 126 -36 15 -113 7 -145 -14 -21 -14 -23 -13 -34
23 -9 33 -19 42 -70 65 -70 31 -122 33 -178 5z m121 -93 c29 -12 35 -20 41
-58 10 -67 25 -98 52 -104 31 -8 69 9 78 34 4 16 67 52 89 52 2 0 6 -17 9 -37
7 -55 -23 -102 -86 -138 -29 -16 -74 -46 -100 -67 -27 -21 -53 -35 -58 -32
-42 26 -112 328 -82 357 9 10 20 9 57 -7z"/>
</g>
</svg>
